{
    "photos": {
        "page": 1,
        "pages": 142,
        "perpage": 25,
        "total": "3531",
        "photo": [
            {
                "id": "49012671013",
                "owner": "185344493@N07",
                "secret": "3636103ed3",
                "server": "65535",
                "farm": 66,
                "title": "Jennifer Douglas Abubakar0",
                "ispublic": 1,
                "isfriend": 0,
                "isfamily": 0
            },
            {
                "id": "49013191366",
                "owner": "185344493@N07",
                "secret": "265ee2cb1f",
                "server": "65535",
                "farm": 66,
                "title": "jennifer-douglas-abubakar-web-site-about",
                "ispublic": 1,
                "isfriend": 0,
                "isfamily": 0
            },
            {
                "id": "48908377841",
                "owner": "185020993@N07",
                "secret": "9fcce375af",
                "server": "0",
                "farm": 0,
                "title": "Jennifer Iwenjiora Douglas Abubakar",
                "ispublic": 1,
                "isfriend": 0,
                "isfamily": 0
            },
            {
                "id": "48836387927",
                "owner": "89438962@N05",
                "secret": "0712b13830",
                "server": "65535",
                "farm": 66,
                "title": "Truck on river Donga",
                "ispublic": 1,
                "isfriend": 0,
                "isfamily": 0
            },
            {
                "id": "48780805611",
                "owner": "183925646@N08",
                "secret": "092a08ab5e",
                "server": "65535",
                "farm": 66,
                "title": "El-Rufa’i keeps promise enrolls son in public primary school",
                "ispublic": 1,
                "isfriend": 0,
                "isfamily": 0
            },
            {
                "id": "48763850663",
                "owner": "50116939@N06",
                "secret": "0e0e6c2846",
                "server": "65535",
                "farm": 66,
                "title": "Mr. Abubakar Halilu",
                "ispublic": 1,
                "isfriend": 0,
                "isfamily": 0
            },
            {
                "id": "48764175866",
                "owner": "50116939@N06",
                "secret": "10bcd1559b",
                "server": "65535",
                "farm": 66,
                "title": "Dr. Aisha Abdulkadir",
                "ispublic": 1,
                "isfriend": 0,
                "isfamily": 0
            },
            {
                "id": "48746588406",
                "owner": "184474885@N06",
                "secret": "43ba46818e",
                "server": "65535",
                "farm": 66,
                "title": "DSC_0287",
                "ispublic": 1,
                "isfriend": 0,
                "isfamily": 0
            },
            {
                "id": "48746588051",
                "owner": "184474885@N06",
                "secret": "23da729441",
                "server": "65535",
                "farm": 66,
                "title": "DSC_0289",
                "ispublic": 1,
                "isfriend": 0,
                "isfamily": 0
            },
            {
                "id": "48746249138",
                "owner": "184474885@N06",
                "secret": "a66148a602",
                "server": "65535",
                "farm": 66,
                "title": "DSC_0306",
                "ispublic": 1,
                "isfriend": 0,
                "isfamily": 0
            },
            {
                "id": "48746248238",
                "owner": "184474885@N06",
                "secret": "c7870bcd7f",
                "server": "65535",
                "farm": 66,
                "title": "DSC_0309",
                "ispublic": 1,
                "isfriend": 0,
                "isfamily": 0
            },
            {
                "id": "48746583051",
                "owner": "184474885@N06",
                "secret": "3eb6eba2f3",
                "server": "65535",
                "farm": 66,
                "title": "DSC_0311",
                "ispublic": 1,
                "isfriend": 0,
                "isfamily": 0
            },
            {
                "id": "48746140863",
                "owner": "184474885@N06",
                "secret": "deea6888cd",
                "server": "65535",
                "farm": 66,
                "title": "DSC_0346",
                "ispublic": 1,
                "isfriend": 0,
                "isfamily": 0
            },
            {
                "id": "48746653177",
                "owner": "184474885@N06",
                "secret": "2b98bb81b3",
                "server": "65535",
                "farm": 66,
                "title": "IMG_8501",
                "ispublic": 1,
                "isfriend": 0,
                "isfamily": 0
            },
            {
                "id": "48742734083",
                "owner": "183925646@N08",
                "secret": "8b70000f26",
                "server": "65535",
                "farm": 66,
                "title": "Security guard in court for allegedly stealing a cow",
                "ispublic": 1,
                "isfriend": 0,
                "isfamily": 0
            },
            {
                "id": "48727686003",
                "owner": "183925646@N08",
                "secret": "e4c589fdeb",
                "server": "65535",
                "farm": 66,
                "title": "FG determined to ensure unhindered access to Justice for Nigerians – Malami",
                "ispublic": 1,
                "isfriend": 0,
                "isfamily": 0
            },
            {
                "id": "48726980772",
                "owner": "183925646@N08",
                "secret": "5ae4f59f9e",
                "server": "65535",
                "farm": 66,
                "title": "Court remands 2 labourers over alleged armed robbery",
                "ispublic": 1,
                "isfriend": 0,
                "isfamily": 0
            },
            {
                "id": "48722050322",
                "owner": "183925646@N08",
                "secret": "a8f91b4fc6",
                "server": "65535",
                "farm": 66,
                "title": "Court remands butcher for allegedly raping 20-year-old woman",
                "ispublic": 1,
                "isfriend": 0,
                "isfamily": 0
            },
            {
                "id": "48720481217",
                "owner": "89097492@N06",
                "secret": "a864ef0b59",
                "server": "65535",
                "farm": 66,
                "title": "Trachoma impact survey.",
                "ispublic": 1,
                "isfriend": 0,
                "isfamily": 0
            },
            {
                "id": "48952724756",
                "owner": "41340735@N04",
                "secret": "e887ed2124",
                "server": "65535",
                "farm": 66,
                "title": "9. Hussaina Abubakar ('19 Nigeria-MN)",
                "ispublic": 1,
                "isfriend": 0,
                "isfamily": 0
            },
            {
                "id": "48753173963",
                "owner": "183925646@N08",
                "secret": "0c620c3beb",
                "server": "65535",
                "farm": 66,
                "title": "UNICEF, EU, supporting Kebbi to implement primary healthcare under one roof – ES",
                "ispublic": 1,
                "isfriend": 0,
                "isfamily": 0
            },
            {
                "id": "48746252098",
                "owner": "184474885@N06",
                "secret": "4747beb580",
                "server": "65535",
                "farm": 66,
                "title": "DSC_0295",
                "ispublic": 1,
                "isfriend": 0,
                "isfamily": 0
            },
            {
                "id": "48727403771",
                "owner": "183925646@N08",
                "secret": "225e2dec89",
                "server": "65535",
                "farm": 66,
                "title": "Court admits motorcyclist to N200,000 bail for assault",
                "ispublic": 1,
                "isfriend": 0,
                "isfamily": 0
            },
            {
                "id": "48726111513",
                "owner": "183925646@N08",
                "secret": "8b3c06b58f",
                "server": "65535",
                "farm": 66,
                "title": "Court remands 3 for alleged transformer vandalism",
                "ispublic": 1,
                "isfriend": 0,
                "isfamily": 0
            },
            {
                "id": "48726199581",
                "owner": "183925646@N08",
                "secret": "fd2944d9d2",
                "server": "65535",
                "farm": 66,
                "title": "Court remands 5 applicants for allegedly attacking businesswoman, stealing iPhone",
                "ispublic": 1,
                "isfriend": 0,
                "isfamily": 0
            }
        ]
    },
    "stat": "ok"
}
