{
    "photos": {
        "page": 1,
        "pages": 40,
        "perpage": 25,
        "total": 1000,
        "photo": [
            {
                "id": "49016992413",
                "owner": "185080440@N04",
                "secret": "9a3b8b728a",
                "server": "65535",
                "farm": 66,
                "title": "$950 Casino Tournament at Superior Casino",
                "ispublic": 1,
                "isfriend": 0,
                "isfamily": 0
            },
            {
                "id": "49016993003",
                "owner": "151560303@N06",
                "secret": "e14a7126ae",
                "server": "65535",
                "farm": 66,
                "title": "Cinema room",
                "ispublic": 1,
                "isfriend": 0,
                "isfamily": 0
            },
            {
                "id": "49016993978",
                "owner": "123489620@N05",
                "secret": "b307664bee",
                "server": "65535",
                "farm": 66,
                "title": "Echasse",
                "ispublic": 1,
                "isfriend": 0,
                "isfamily": 0
            },
            {
                "id": "49016994008",
                "owner": "184087760@N02",
                "secret": "6d587550ec",
                "server": "65535",
                "farm": 66,
                "title": "Nguyên nhân tắc ống dẫn trứng và triệu chứng",
                "ispublic": 1,
                "isfriend": 0,
                "isfamily": 0
            },
            {
                "id": "49016994713",
                "owner": "22151176@N04",
                "secret": "1f2855f91b",
                "server": "65535",
                "farm": 66,
                "title": "Bullet Canyon",
                "ispublic": 1,
                "isfriend": 0,
                "isfamily": 0
            },
            {
                "id": "49016995078",
                "owner": "184800170@N02",
                "secret": "284074f841",
                "server": "65535",
                "farm": 66,
                "title": "Display Counter-counter Display For Jewelry",
                "ispublic": 1,
                "isfriend": 0,
                "isfamily": 0
            },
            {
                "id": "49016995383",
                "owner": "147173250@N06",
                "secret": "3865f8c0a8",
                "server": "65535",
                "farm": 66,
                "title": "EA 148 in gara Bucuresti Nord",
                "ispublic": 1,
                "isfriend": 0,
                "isfamily": 0
            },
            {
                "id": "49016995413",
                "owner": "185038411@N02",
                "secret": "ea2eef6a4e",
                "server": "65535",
                "farm": 66,
                "title": "225 Free Spins Casino at Eurogrand Casino",
                "ispublic": 1,
                "isfriend": 0,
                "isfamily": 0
            },
            {
                "id": "49017512216",
                "owner": "7599121@N08",
                "secret": "4ca0e45740",
                "server": "65535",
                "farm": 66,
                "title": "Freedom of the Seas - 11/2019 - St Maarten",
                "ispublic": 1,
                "isfriend": 0,
                "isfamily": 0
            },
            {
                "id": "49017512671",
                "owner": "185357649@N08",
                "secret": "9b631064ec",
                "server": "65535",
                "farm": 66,
                "title": "Established in EEA but have no EEA customers. Is the company subject to GDPR? : gdpr",
                "ispublic": 1,
                "isfriend": 0,
                "isfamily": 0
            },
            {
                "id": "49017512696",
                "owner": "54577048@N04",
                "secret": "33569f2c3c",
                "server": "65535",
                "farm": 66,
                "title": "DSC_8011.jpg",
                "ispublic": 1,
                "isfriend": 0,
                "isfamily": 0
            },
            {
                "id": "49017512746",
                "owner": "85526736@N02",
                "secret": "13574899ca",
                "server": "65535",
                "farm": 66,
                "title": "Jaipur",
                "ispublic": 1,
                "isfriend": 0,
                "isfamily": 0
            },
            {
                "id": "49017512861",
                "owner": "185358972@N03",
                "secret": "a53dab9c2b",
                "server": "65535",
                "farm": 66,
                "title": "PSX_20191102_214730",
                "ispublic": 1,
                "isfriend": 0,
                "isfamily": 0
            },
            {
                "id": "49017513386",
                "owner": "33869531@N02",
                "secret": "075b715b1f",
                "server": "65535",
                "farm": 66,
                "title": "2019-11-05_09-23-46",
                "ispublic": 1,
                "isfriend": 0,
                "isfamily": 0
            },
            {
                "id": "49017514496",
                "owner": "182879231@N07",
                "secret": "3901f38b96",
                "server": "65535",
                "farm": 66,
                "title": "#kareenakapoorkhan .  .  .  .  .  .  .  .  .    #rakulpreetsingh #samantharuthprabhu #aish...",
                "ispublic": 1,
                "isfriend": 0,
                "isfamily": 0
            },
            {
                "id": "49017713702",
                "owner": "94454215@N00",
                "secret": "3b8f697cf2",
                "server": "65535",
                "farm": 66,
                "title": "Pier Attraction",
                "ispublic": 1,
                "isfriend": 0,
                "isfamily": 0
            },
            {
                "id": "49017715842",
                "owner": "63018044@N02",
                "secret": "f43cc77258",
                "server": "65535",
                "farm": 66,
                "title": "Westkapelle",
                "ispublic": 1,
                "isfriend": 0,
                "isfamily": 0
            },
            {
                "id": "49017715937",
                "owner": "110878555@N06",
                "secret": "648b62b38f",
                "server": "65535",
                "farm": 66,
                "title": "IMG_7725.jpg",
                "ispublic": 1,
                "isfriend": 0,
                "isfamily": 0
            },
            {
                "id": "49017716087",
                "owner": "185334592@N05",
                "secret": "49bd378cb3",
                "server": "65535",
                "farm": 66,
                "title": "\u200e\"Down with the new Prime Minister\"    \"hashtag precaution is necessary\"",
                "ispublic": 1,
                "isfriend": 0,
                "isfamily": 0
            },
            {
                "id": "49017716707",
                "owner": "154535818@N03",
                "secret": "872c5db747",
                "server": "65535",
                "farm": 66,
                "title": "DSC_0109Maikan",
                "ispublic": 1,
                "isfriend": 0,
                "isfamily": 0
            },
            {
                "id": "49017716807",
                "owner": "156426161@N04",
                "secret": "74ae9a7836",
                "server": "65535",
                "farm": 66,
                "title": "Vts",
                "ispublic": 1,
                "isfriend": 0,
                "isfamily": 0
            },
            {
                "id": "49017717072",
                "owner": "151639852@N07",
                "secret": "b87927b046",
                "server": "65535",
                "farm": 66,
                "title": "2019-11-02_12-38-47_ILCE-6500_DSC00370",
                "ispublic": 1,
                "isfriend": 0,
                "isfamily": 0
            },
            {
                "id": "49017717132",
                "owner": "129139153@N02",
                "secret": "d38c01e534",
                "server": "65535",
                "farm": 66,
                "title": "2016-02-24 13-52-51.jpg",
                "ispublic": 1,
                "isfriend": 0,
                "isfamily": 0
            },
            {
                "id": "49017717262",
                "owner": "158842756@N05",
                "secret": "44d1502599",
                "server": "65535",
                "farm": 66,
                "title": "PASSENGER MOTORS KL 44 E 5421 BODYMETTU-POOPARA- ERANAKULAM LSOS  PASSENGER KL 44 E 5421 ബോഡിമെട്ട്-എറണാകുളം LS via പൂപ്പാറ രാജകുമാരി രാജാക്കാട് വെള്ളത്തൂവൽ അടിമാലി നേര്യമംഗലം കോതമംഗലം പെരുമ്പാവൂർ പൂക്കാട്ടുപടി കാക്കനാട് വൈറ്റില KONDODY AUTOCRAFT INDIA PV",
                "ispublic": 1,
                "isfriend": 0,
                "isfamily": 0
            },
            {
                "id": "49017717307",
                "owner": "40129895@N03",
                "secret": "537fcfa3ee",
                "server": "65535",
                "farm": 66,
                "title": "76650785_1373127519539145_7028667602847137792_n.jpg",
                "ispublic": 1,
                "isfriend": 0,
                "isfamily": 0
            }
        ]
    },
    "stat": "ok"
}
